﻿{
    "nimbusfox.nimbusTech.cast.metalOre": {
        "oreDropChance": {
            "staxel.tile.rock.Rock.1": [
                {
                    "__inherits": "mods/NimbusTech/Staxel/Ores/Drops/Metals/Silver.json"
                }
            ],
            "staxel.tile.rock.Rock.2": [
                {
                    "__inherits": "mods/NimbusTech/Staxel/Ores/Drops/Metals/Silver.json"
                }
            ],
            "staxel.tile.rock.Rock.3": [
                {
                    "__inherits": "mods/NimbusTech/Staxel/Ores/Drops/Metals/Silver.json"
                }
            ],
            "staxel.tile.rock.Rock.4": [
                {
                    "__inherits": "mods/NimbusTech/Staxel/Ores/Drops/Metals/Silver.json"
                }
            ],
            "staxel.tile.rock.Rock.5": [
                {
                    "__inherits": "mods/NimbusTech/Staxel/Ores/Drops/Metals/Silver.json"
                }
            ],
            "staxel.tile.rock.Rock.5.Autumn": [
                {
                    "__inherits": "mods/NimbusTech/Staxel/Ores/Drops/Metals/Silver.json"
                }
            ],
            "staxel.tile.rock.Rock.5.Winter": [
                {
                    "__inherits": "mods/NimbusTech/Staxel/Ores/Drops/Metals/Silver.json"
                }
            ],
            "staxel.tile.rock.Rock.5.Spring": [
                {
                    "__inherits": "mods/NimbusTech/Staxel/Ores/Drops/Metals/Silver.json"
                }
            ],
            "staxel.tile.rock.Rock.5.Summer": [
                {
                    "__inherits": "mods/NimbusTech/Staxel/Ores/Drops/Metals/Silver.json"
                }
            ]
        }
    }
}