{
    "inHandOffset": {
        "x": 0.0,
        "y": 0.0,
        "z": 0.0
    },
    "inHandRotation": {
        "x": 0.0,
        "y": 0.0,
        "z": -1.56
    },
    "kind": "staxel.item.CraftItem",
    "searchable": true,
    "usageOffset": {
        "x": 0.0,
        "y": 0.0,
        "z": 0.0
    }
}
