{
    "code": "nimbusfox.nimbusTech.particle.oreClean",
    "angularVelocity": 1.0,
    "color": "ff6f7373",
    "colorSpread": {
        "x": 0.02,
        "y": 0.02,
        "z": 0.02
    },
    "emitDuration": 0.0,
    "emitVelocity": {
        "x": 0.0,
        "y": 1.0,
        "z": 0.0
    },
    "emitVelocitySpread": {
        "x": 1.0,
        "y": 0.0,
        "z": 1.0
    },
    "gravityFactor": {
        "x": 0.0,
        "y": -0.1,
        "z": 0.0
    },
    "liveDuration": 0.8,
    "particlesPerSecond": 30.0,
    "position": {
        "x": 0.0,
        "y": 0.0,
        "z": 0.0
    },
    "positionSpread": {
        "x": 0.1,
        "y": 0.1,
        "z": 0.35
    },
    "scale": 0.3,
    "scaleSpread": 0.1
}
